{
  "__inputs": [],
  "__requires": [],
  "annotations": {
    "list": []
  },
  "editable": false,
  "gnetId": null,
  "graphTooltip": 1,
  "hideControls": false,
  "id": null,
  "links": [],
  "panels": [
    {
      "collapse": false,
      "collapsed": false,
      "gridPos": {
        "h": 1,
        "w": 24,
        "x": 0,
        "y": 5
      },
      "id": 2,
      "panels": [],
      "repeat": null,
      "repeatIteration": null,
      "repeatRowId": null,
      "showTitle": true,
      "title": "Overall GitLab availability",
      "titleSize": "h6",
      "type": "row"
    },
    {
      "datasource": "$PROMETHEUS_DS",
      "description": "Availability",
      "fieldConfig": {
        "defaults": {
          "decimals": 2,
          "links": [],
          "mappings": [],
          "max": 1,
          "min": 0,
          "thresholds": {
            "mode": "absolute",
            "steps": [
              {
                "color": "red",
                "value": 0
              },
              {
                "color": "light-red",
                "value": 0.95
              },
              {
                "color": "orange",
                "value": 0.99
              },
              {
                "color": "light-orange",
                "value": 0.995
              },
              {
                "color": "yellow",
                "value": 0.9994
              },
              {
                "color": "light-yellow",
                "value": 0.9995
              },
              {
                "color": "green",
                "value": 0.9998
              }
            ]
          },
          "unit": "percentunit"
        }
      },
      "gridPos": {
        "h": 5,
        "w": 4,
        "x": 0,
        "y": 10
      },
      "id": 3,
      "links": [],
      "options": {
        "colorMode": "background",
        "graphMode": "none",
        "justifyMode": "auto",
        "orientation": "auto",
        "reduceOptions": {
          "calcs": [
            "last"
          ],
          "fields": "",
          "values": true
        },
        "textMode": "auto"
      },
      "pluginVersion": "7",
      "targets": [
        {
          "expr": "sum(\n  sum by (type)(\n    sum_over_time(gitlab:availability:success:rate_1h{type=\"registry\"}[$__range]) * $registry_weight\n  )\n  or\n  sum by (type)(\n    sum_over_time(gitlab:availability:success:rate_1h{type=\"webservice\"}[$__range]) * $webservice_weight\n  )\n)\n/\nsum(\n  sum by (type)(\n    sum_over_time(gitlab:availability:ops:rate_1h{type=\"registry\"}[$__range]) * $registry_weight\n  )\n  or\n  sum by (type)(\n    sum_over_time(gitlab:availability:ops:rate_1h{type=\"webservice\"}[$__range]) * $webservice_weight\n  )\n)\n",
          "format": "time_series",
          "instant": true,
          "interval": "1m",
          "intervalFactor": 1,
          "legendFormat": "",
          "refId": "A"
        }
      ],
      "title": "Overall availability",
      "transparent": false,
      "type": "stat"
    },
    {
      "datasource": "$PROMETHEUS_DS",
      "description": "Availability",
      "fieldConfig": {
        "defaults": {
          "decimals": 1,
          "displayName": "Budget Spent",
          "links": [],
          "mappings": [],
          "max": 1,
          "min": 0,
          "thresholds": {
            "mode": "absolute",
            "steps": [
              {
                "color": "light-blue",
                "value": null
              }
            ]
          },
          "unit": "ms"
        }
      },
      "gridPos": {
        "h": 5,
        "w": 4,
        "x": 4,
        "y": 10
      },
      "id": 4,
      "links": [],
      "options": {
        "colorMode": "value",
        "graphMode": "none",
        "justifyMode": "auto",
        "orientation": "auto",
        "reduceOptions": {
          "calcs": [
            "last"
          ],
          "fields": "",
          "values": true
        },
        "textMode": "auto"
      },
      "pluginVersion": "7",
      "targets": [
        {
          "expr": "(\n  1 - (\n    sum(\n      sum by (type)(\n        sum_over_time(gitlab:availability:success:rate_1h{type=\"registry\"}[$__range]) * $registry_weight\n      )\n      or\n      sum by (type)(\n        sum_over_time(gitlab:availability:success:rate_1h{type=\"webservice\"}[$__range]) * $webservice_weight\n      )\n    )\n    /\n    sum(\n      sum by (type)(\n        sum_over_time(gitlab:availability:ops:rate_1h{type=\"registry\"}[$__range]) * $registry_weight\n      )\n      or\n      sum by (type)(\n        sum_over_time(gitlab:availability:ops:rate_1h{type=\"webservice\"}[$__range]) * $webservice_weight\n      )\n    )\n  )\n) * $__range_ms\n",
          "format": "time_series",
          "instant": true,
          "interval": "1m",
          "intervalFactor": 1,
          "legendFormat": "",
          "refId": "A"
        }
      ],
      "title": "",
      "transparent": false,
      "type": "stat"
    },
    {
      "config": {
        "animationDuration": 0,
        "cellPadding": "3",
        "cellRadius": "2",
        "cellSize": "11",
        "colLimit": null,
        "displayLegend": false,
        "domain": "month",
        "domainGutter": 2,
        "hoverDecimals": 2,
        "hoverUnitFormat": "percentunit",
        "itemName": [
          "percentunit",
          "percentunit"
        ],
        "label": {
          "position": "bottom",
          "rotate": "null",
          "width": 60
        },
        "legendColors": {
          "base": "transparent",
          "empty": "#444444",
          "max": "#73BF69",
          "min": "#F2495C"
        },
        "legendStr": "0.995000",
        "legendTitleFormat": {
          "inner": {},
          "lower": {},
          "upper": {}
        },
        "rowLimit": null,
        "subDomain": "day",
        "subDomainTitleFormat": {
          "empty": "{date}",
          "filled": "{date}"
        },
        "verticalOrientation": false
      },
      "datasource": "$PROMETHEUS_DS",
      "fieldConfig": {
        "defaults": {
          "custom": {}
        },
        "overrides": []
      },
      "gridPos": {
        "h": 5,
        "w": 4,
        "x": 8,
        "y": 10
      },
      "id": 5,
      "targets": [
        {
          "expr": "sum(\n  sum by (type)(\n    sum_over_time(gitlab:availability:success:rate_1h{type=\"registry\"}[1d]) * $registry_weight\n  )\n  or\n  sum by (type)(\n    sum_over_time(gitlab:availability:success:rate_1h{type=\"webservice\"}[1d]) * $webservice_weight\n  )\n)\n/\nsum(\n  sum by (type)(\n    sum_over_time(gitlab:availability:ops:rate_1h{type=\"registry\"}[1d]) * $registry_weight\n  )\n  or\n  sum by (type)(\n    sum_over_time(gitlab:availability:ops:rate_1h{type=\"webservice\"}[1d]) * $webservice_weight\n  )\n)\n",
          "format": "time_series",
          "instant": false,
          "interval": "1d",
          "intervalFactor": 1,
          "legendFormat": ""
        }
      ],
      "title": "Calendar",
      "type": "neocat-cal-heatmap-panel"
    },
    {
      "aliasColors": {},
      "bars": false,
      "dashLength": 10,
      "dashes": false,
      "datasource": "$PROMETHEUS_DS",
      "decimals": 2,
      "description": "Availability over time, higher is better.",
      "fill": 0,
      "fillGradient": 0,
      "gridPos": {
        "h": 5,
        "w": 12,
        "x": 12,
        "y": 10
      },
      "id": 6,
      "legend": {
        "alignAsTable": true,
        "avg": true,
        "current": true,
        "hideEmpty": true,
        "max": true,
        "min": true,
        "rightSide": false,
        "show": false,
        "sideWidth": null,
        "total": false,
        "values": true
      },
      "lines": true,
      "linewidth": 2,
      "links": [],
      "nullPointMode": "null",
      "percentage": false,
      "pointradius": 3,
      "points": false,
      "renderer": "flot",
      "repeat": null,
      "seriesOverrides": [],
      "spaceLength": 10,
      "stack": false,
      "steppedLine": false,
      "targets": [
        {
          "expr": "clamp_min(clamp_max(clamp_max(\n  clamp_min(\n    sum(\n      sum by (type)(\n        sum_over_time(gitlab:availability:success:rate_1h{type=\"registry\"}[$__interval]) * $registry_weight\n      )\n      or\n      sum by (type)(\n        sum_over_time(gitlab:availability:success:rate_1h{type=\"webservice\"}[$__interval]) * $webservice_weight\n      )\n    )\n    /\n    sum(\n      sum by (type)(\n        sum_over_time(gitlab:availability:ops:rate_1h{type=\"registry\"}[$__interval]) * $registry_weight\n      )\n      or\n      sum by (type)(\n        sum_over_time(gitlab:availability:ops:rate_1h{type=\"webservice\"}[$__interval]) * $webservice_weight\n      )\n    ),\n    0\n  ),\n  1\n)\n,1),0)\n",
          "format": "time_series",
          "interval": "1m",
          "intervalFactor": 1,
          "legendFormat": "Overall SLA",
          "refId": "A"
        }
      ],
      "thresholds": [],
      "timeFrom": null,
      "timeShift": null,
      "title": "Overall GitLab.com SLA over time period",
      "tooltip": {
        "shared": true,
        "sort": 2,
        "value_type": "individual"
      },
      "type": "graph",
      "xaxis": {
        "buckets": null,
        "mode": "time",
        "name": null,
        "show": true,
        "values": []
      },
      "yaxes": [
        {
          "format": "percentunit",
          "label": "SLA",
          "logBase": 1,
          "max": 1,
          "min": null,
          "show": true
        },
        {
          "format": "short",
          "label": null,
          "logBase": 1,
          "max": 1,
          "min": 0,
          "show": false
        }
      ]
    },
    {
      "collapse": false,
      "collapsed": false,
      "gridPos": {
        "h": 1,
        "w": 24,
        "x": 0,
        "y": 15
      },
      "id": 7,
      "panels": [],
      "repeat": null,
      "repeatIteration": null,
      "repeatRowId": null,
      "showTitle": true,
      "title": "GitLab Primary Service Availability",
      "titleSize": "h6",
      "type": "row"
    },
    {
      "datasource": "$PROMETHEUS_DS",
      "description": "Availability",
      "fieldConfig": {
        "defaults": {
          "decimals": 2,
          "links": [],
          "mappings": [],
          "max": 1,
          "min": 0,
          "thresholds": {
            "mode": "absolute",
            "steps": [
              {
                "color": "red",
                "value": 0
              },
              {
                "color": "light-red",
                "value": 0.95
              },
              {
                "color": "orange",
                "value": 0.99
              },
              {
                "color": "light-orange",
                "value": 0.995
              },
              {
                "color": "yellow",
                "value": 0.9994
              },
              {
                "color": "light-yellow",
                "value": 0.9995
              },
              {
                "color": "green",
                "value": 0.9998
              }
            ]
          },
          "unit": "percentunit"
        }
      },
      "gridPos": {
        "h": 5,
        "w": 4,
        "x": 0,
        "y": 15
      },
      "id": 8,
      "links": [],
      "options": {
        "colorMode": "background",
        "graphMode": "none",
        "justifyMode": "auto",
        "orientation": "auto",
        "reduceOptions": {
          "calcs": [
            "last"
          ],
          "fields": "",
          "values": true
        },
        "textMode": "auto"
      },
      "pluginVersion": "7",
      "targets": [
        {
          "expr": "clamp_max(\n  clamp_min(\n    sum by () (\n      sum_over_time(gitlab:availability:success:rate_1h{type=~\"webservice\"}[$__range])\n    )\n    /\n    sum by () (\n      sum_over_time(gitlab:availability:ops:rate_1h{type=~\"webservice\"}[$__range])\n    ),\n    0\n  ),\n  1\n)\n",
          "format": "time_series",
          "instant": true,
          "interval": "1m",
          "intervalFactor": 1,
          "legendFormat": "",
          "refId": "A"
        }
      ],
      "title": "webservice availability",
      "transparent": false,
      "type": "stat"
    },
    {
      "datasource": "$PROMETHEUS_DS",
      "description": "Availability",
      "fieldConfig": {
        "defaults": {
          "decimals": 1,
          "displayName": "Budget Spent",
          "links": [],
          "mappings": [],
          "max": 1,
          "min": 0,
          "thresholds": {
            "mode": "absolute",
            "steps": [
              {
                "color": "light-blue",
                "value": null
              }
            ]
          },
          "unit": "ms"
        }
      },
      "gridPos": {
        "h": 5,
        "w": 4,
        "x": 4,
        "y": 15
      },
      "id": 9,
      "links": [],
      "options": {
        "colorMode": "value",
        "graphMode": "none",
        "justifyMode": "auto",
        "orientation": "auto",
        "reduceOptions": {
          "calcs": [
            "last"
          ],
          "fields": "",
          "values": true
        },
        "textMode": "auto"
      },
      "pluginVersion": "7",
      "targets": [
        {
          "expr": "(\n  1 - (\n    clamp_max(\n      clamp_min(\n        sum by () (\n          sum_over_time(gitlab:availability:success:rate_1h{type=~\"webservice\"}[$__range])\n        )\n        /\n        sum by () (\n          sum_over_time(gitlab:availability:ops:rate_1h{type=~\"webservice\"}[$__range])\n        ),\n        0\n      ),\n      1\n    )\n  )\n) * $__range_ms\n",
          "format": "time_series",
          "instant": true,
          "interval": "1m",
          "intervalFactor": 1,
          "legendFormat": "",
          "refId": "A"
        }
      ],
      "title": "",
      "transparent": false,
      "type": "stat"
    },
    {
      "config": {
        "animationDuration": 0,
        "cellPadding": "3",
        "cellRadius": "2",
        "cellSize": "11",
        "colLimit": null,
        "displayLegend": false,
        "domain": "month",
        "domainGutter": 2,
        "hoverDecimals": 2,
        "hoverUnitFormat": "percentunit",
        "itemName": [
          "percentunit",
          "percentunit"
        ],
        "label": {
          "position": "bottom",
          "rotate": "null",
          "width": 60
        },
        "legendColors": {
          "base": "transparent",
          "empty": "#444444",
          "max": "#73BF69",
          "min": "#F2495C"
        },
        "legendStr": "0.995000",
        "legendTitleFormat": {
          "inner": {},
          "lower": {},
          "upper": {}
        },
        "rowLimit": null,
        "subDomain": "day",
        "subDomainTitleFormat": {
          "empty": "{date}",
          "filled": "{date}"
        },
        "verticalOrientation": false
      },
      "datasource": "$PROMETHEUS_DS",
      "fieldConfig": {
        "defaults": {
          "custom": {}
        },
        "overrides": []
      },
      "gridPos": {
        "h": 5,
        "w": 4,
        "x": 8,
        "y": 15
      },
      "id": 10,
      "targets": [
        {
          "expr": "sum by () (\n  sum_over_time(gitlab:availability:success:rate_1h{type=~\"webservice\"}[1d])\n)\n/\nsum by () (\n  sum_over_time(gitlab:availability:ops:rate_1h{type=~\"webservice\"}[1d])\n)\n",
          "format": "time_series",
          "instant": false,
          "interval": "1d",
          "intervalFactor": 1,
          "legendFormat": ""
        }
      ],
      "title": "Calendar",
      "type": "neocat-cal-heatmap-panel"
    },
    {
      "aliasColors": {},
      "bars": false,
      "dashLength": 10,
      "dashes": false,
      "datasource": "$PROMETHEUS_DS",
      "decimals": 2,
      "description": "Availability over time, higher is better.",
      "fill": 0,
      "fillGradient": 0,
      "gridPos": {
        "h": 5,
        "w": 12,
        "x": 12,
        "y": 15
      },
      "id": 11,
      "legend": {
        "alignAsTable": true,
        "avg": true,
        "current": true,
        "hideEmpty": true,
        "max": true,
        "min": true,
        "rightSide": false,
        "show": false,
        "sideWidth": null,
        "total": false,
        "values": true
      },
      "lines": true,
      "linewidth": 2,
      "links": [],
      "nullPointMode": "null",
      "percentage": false,
      "pointradius": 3,
      "points": false,
      "renderer": "flot",
      "repeat": null,
      "seriesOverrides": [],
      "spaceLength": 10,
      "stack": false,
      "steppedLine": false,
      "targets": [
        {
          "expr": "clamp_min(clamp_max(clamp_max(\n  clamp_min(\n    sum by () (\n      sum_over_time(gitlab:availability:success:rate_1h{type=~\"webservice\"}[$__interval])\n    )\n    /\n    sum by () (\n      sum_over_time(gitlab:availability:ops:rate_1h{type=~\"webservice\"}[$__interval])\n    ),\n    0\n  ),\n  1\n)\n,1),0)\n",
          "format": "time_series",
          "interval": "1m",
          "intervalFactor": 1,
          "legendFormat": "webservice SLA",
          "refId": "A"
        }
      ],
      "thresholds": [],
      "timeFrom": null,
      "timeShift": null,
      "title": "webservice SLA over time period",
      "tooltip": {
        "shared": true,
        "sort": 2,
        "value_type": "individual"
      },
      "type": "graph",
      "xaxis": {
        "buckets": null,
        "mode": "time",
        "name": null,
        "show": true,
        "values": []
      },
      "yaxes": [
        {
          "format": "percentunit",
          "label": "SLA",
          "logBase": 1,
          "max": 1,
          "min": null,
          "show": true
        },
        {
          "format": "short",
          "label": null,
          "logBase": 1,
          "max": 1,
          "min": 0,
          "show": false
        }
      ]
    },
    {
      "datasource": "$PROMETHEUS_DS",
      "description": "Availability",
      "fieldConfig": {
        "defaults": {
          "decimals": 2,
          "links": [],
          "mappings": [],
          "max": 1,
          "min": 0,
          "thresholds": {
            "mode": "absolute",
            "steps": [
              {
                "color": "red",
                "value": 0
              },
              {
                "color": "light-red",
                "value": 0.95
              },
              {
                "color": "orange",
                "value": 0.99
              },
              {
                "color": "light-orange",
                "value": 0.995
              },
              {
                "color": "yellow",
                "value": 0.9994
              },
              {
                "color": "light-yellow",
                "value": 0.9995
              },
              {
                "color": "green",
                "value": 0.9998
              }
            ]
          },
          "unit": "percentunit"
        }
      },
      "gridPos": {
        "h": 5,
        "w": 4,
        "x": 0,
        "y": 20
      },
      "id": 12,
      "links": [],
      "options": {
        "colorMode": "background",
        "graphMode": "none",
        "justifyMode": "auto",
        "orientation": "auto",
        "reduceOptions": {
          "calcs": [
            "last"
          ],
          "fields": "",
          "values": true
        },
        "textMode": "auto"
      },
      "pluginVersion": "7",
      "targets": [
        {
          "expr": "clamp_max(\n  clamp_min(\n    sum by () (\n      sum_over_time(gitlab:availability:success:rate_1h{type=~\"registry\"}[$__range])\n    )\n    /\n    sum by () (\n      sum_over_time(gitlab:availability:ops:rate_1h{type=~\"registry\"}[$__range])\n    ),\n    0\n  ),\n  1\n)\n",
          "format": "time_series",
          "instant": true,
          "interval": "1m",
          "intervalFactor": 1,
          "legendFormat": "",
          "refId": "A"
        }
      ],
      "title": "registry availability",
      "transparent": false,
      "type": "stat"
    },
    {
      "datasource": "$PROMETHEUS_DS",
      "description": "Availability",
      "fieldConfig": {
        "defaults": {
          "decimals": 1,
          "displayName": "Budget Spent",
          "links": [],
          "mappings": [],
          "max": 1,
          "min": 0,
          "thresholds": {
            "mode": "absolute",
            "steps": [
              {
                "color": "light-blue",
                "value": null
              }
            ]
          },
          "unit": "ms"
        }
      },
      "gridPos": {
        "h": 5,
        "w": 4,
        "x": 4,
        "y": 20
      },
      "id": 13,
      "links": [],
      "options": {
        "colorMode": "value",
        "graphMode": "none",
        "justifyMode": "auto",
        "orientation": "auto",
        "reduceOptions": {
          "calcs": [
            "last"
          ],
          "fields": "",
          "values": true
        },
        "textMode": "auto"
      },
      "pluginVersion": "7",
      "targets": [
        {
          "expr": "(\n  1 - (\n    clamp_max(\n      clamp_min(\n        sum by () (\n          sum_over_time(gitlab:availability:success:rate_1h{type=~\"registry\"}[$__range])\n        )\n        /\n        sum by () (\n          sum_over_time(gitlab:availability:ops:rate_1h{type=~\"registry\"}[$__range])\n        ),\n        0\n      ),\n      1\n    )\n  )\n) * $__range_ms\n",
          "format": "time_series",
          "instant": true,
          "interval": "1m",
          "intervalFactor": 1,
          "legendFormat": "",
          "refId": "A"
        }
      ],
      "title": "",
      "transparent": false,
      "type": "stat"
    },
    {
      "config": {
        "animationDuration": 0,
        "cellPadding": "3",
        "cellRadius": "2",
        "cellSize": "11",
        "colLimit": null,
        "displayLegend": false,
        "domain": "month",
        "domainGutter": 2,
        "hoverDecimals": 2,
        "hoverUnitFormat": "percentunit",
        "itemName": [
          "percentunit",
          "percentunit"
        ],
        "label": {
          "position": "bottom",
          "rotate": "null",
          "width": 60
        },
        "legendColors": {
          "base": "transparent",
          "empty": "#444444",
          "max": "#73BF69",
          "min": "#F2495C"
        },
        "legendStr": "0.995000",
        "legendTitleFormat": {
          "inner": {},
          "lower": {},
          "upper": {}
        },
        "rowLimit": null,
        "subDomain": "day",
        "subDomainTitleFormat": {
          "empty": "{date}",
          "filled": "{date}"
        },
        "verticalOrientation": false
      },
      "datasource": "$PROMETHEUS_DS",
      "fieldConfig": {
        "defaults": {
          "custom": {}
        },
        "overrides": []
      },
      "gridPos": {
        "h": 5,
        "w": 4,
        "x": 8,
        "y": 20
      },
      "id": 14,
      "targets": [
        {
          "expr": "sum by () (\n  sum_over_time(gitlab:availability:success:rate_1h{type=~\"registry\"}[1d])\n)\n/\nsum by () (\n  sum_over_time(gitlab:availability:ops:rate_1h{type=~\"registry\"}[1d])\n)\n",
          "format": "time_series",
          "instant": false,
          "interval": "1d",
          "intervalFactor": 1,
          "legendFormat": ""
        }
      ],
      "title": "Calendar",
      "type": "neocat-cal-heatmap-panel"
    },
    {
      "aliasColors": {},
      "bars": false,
      "dashLength": 10,
      "dashes": false,
      "datasource": "$PROMETHEUS_DS",
      "decimals": 2,
      "description": "Availability over time, higher is better.",
      "fill": 0,
      "fillGradient": 0,
      "gridPos": {
        "h": 5,
        "w": 12,
        "x": 12,
        "y": 20
      },
      "id": 15,
      "legend": {
        "alignAsTable": true,
        "avg": true,
        "current": true,
        "hideEmpty": true,
        "max": true,
        "min": true,
        "rightSide": false,
        "show": false,
        "sideWidth": null,
        "total": false,
        "values": true
      },
      "lines": true,
      "linewidth": 2,
      "links": [],
      "nullPointMode": "null",
      "percentage": false,
      "pointradius": 3,
      "points": false,
      "renderer": "flot",
      "repeat": null,
      "seriesOverrides": [],
      "spaceLength": 10,
      "stack": false,
      "steppedLine": false,
      "targets": [
        {
          "expr": "clamp_min(clamp_max(clamp_max(\n  clamp_min(\n    sum by () (\n      sum_over_time(gitlab:availability:success:rate_1h{type=~\"registry\"}[$__interval])\n    )\n    /\n    sum by () (\n      sum_over_time(gitlab:availability:ops:rate_1h{type=~\"registry\"}[$__interval])\n    ),\n    0\n  ),\n  1\n)\n,1),0)\n",
          "format": "time_series",
          "interval": "1m",
          "intervalFactor": 1,
          "legendFormat": "registry SLA",
          "refId": "A"
        }
      ],
      "thresholds": [],
      "timeFrom": null,
      "timeShift": null,
      "title": "registry SLA over time period",
      "tooltip": {
        "shared": true,
        "sort": 2,
        "value_type": "individual"
      },
      "type": "graph",
      "xaxis": {
        "buckets": null,
        "mode": "time",
        "name": null,
        "show": true,
        "values": []
      },
      "yaxes": [
        {
          "format": "percentunit",
          "label": "SLA",
          "logBase": 1,
          "max": 1,
          "min": null,
          "show": true
        },
        {
          "format": "short",
          "label": null,
          "logBase": 1,
          "max": 1,
          "min": 0,
          "show": false
        }
      ]
    }
  ],
  "refresh": "",
  "rows": [],
  "schemaVersion": 16,
  "style": "light",
  "tags": [
    "general",
    "slas",
    "service-levels"
  ],
  "templating": {
    "list": [
      {
        "current": {
          "text": "default",
          "value": "default"
        },
        "hide": 0,
        "label": null,
        "name": "PROMETHEUS_DS",
        "options": [],
        "query": "prometheus",
        "refresh": 1,
        "regex": "",
        "type": "datasource"
      },
      {
        "allValue": null,
        "current": {
          "text": "gprd",
          "value": "gprd"
        },
        "datasource": "$PROMETHEUS_DS",
        "hide": 0,
        "includeAll": false,
        "label": null,
        "multi": false,
        "name": "environment",
        "options": [],
        "query": "label_values(gitlab_service_ops:rate_1h, environment)",
        "refresh": 1,
        "regex": "",
        "sort": 1,
        "tagValuesQuery": "",
        "tags": [],
        "tagsQuery": "",
        "type": "query",
        "useTags": false
      },
      {
        "allValue": null,
        "current": {
          "text": "1",
          "value": "1"
        },
        "hide": 0,
        "includeAll": false,
        "label": "",
        "multi": false,
        "name": "webservice_weight",
        "options": [
          {
            "text": "0",
            "value": "0"
          },
          {
            "text": "1",
            "value": "1"
          },
          {
            "text": "5",
            "value": "5"
          }
        ],
        "query": "0,1,5",
        "refresh": 0,
        "type": "custom"
      },
      {
        "allValue": null,
        "current": {
          "text": "1",
          "value": "1"
        },
        "hide": 0,
        "includeAll": false,
        "label": "",
        "multi": false,
        "name": "registry_weight",
        "options": [
          {
            "text": "0",
            "value": "0"
          },
          {
            "text": "1",
            "value": "1"
          },
          {
            "text": "5",
            "value": "5"
          }
        ],
        "query": "0,1,5",
        "refresh": 0,
        "type": "custom"
      }
    ]
  },
  "time": {
    "from": "now-1M/M",
    "to": "now-1d/d"
  },
  "timepicker": {
    "refresh_intervals": [
      "1m",
      "5m",
      "10m",
      "15m",
      "30m"
    ],
    "time_options": [
      "5m",
      "15m",
      "1h",
      "6h",
      "12h",
      "24h",
      "2d",
      "7d",
      "30d"
    ]
  },
  "timezone": "utc",
  "title": "Occurence SLAs",
  "version": 0
}